Module 1 – R for Public Health
…
data/

scripts/

output/

Inside the data/ folder you’ll find the dataset for module 1, which is saved as an excel workbook. We’ll want to convert this to an easier format to deal with later, but first let’s try loading the file into R and having a quick look at what we’re working with here!

In order to read the excel file directly into your computers memory without any format changes, we’ll use the readxl package, which, lucky for us, works great with tidyverse. However, the package is not included in tidyverse, so we’ll need to install and load it into memory separately.

Try installing and loading readxl, then using the function read_excel() to load the file “ship_manifest.xlsx”

readxl::read_excel("participant_data/module1/ship_manifest.xlsx")
## # A tibble: 604 × 16
##    Definitely not pirate…¹ ...2  ...3  ...4  ...5  ...6  ...7  ...8  ...9  ...10
##    <chr>                   <chr> <chr> <chr> <chr> <chr> <chr> <chr> <chr> <chr>
##  1 Ship:                   "S. … <NA>  <NA>  <NA>  <NA>  <NA>  <NA>  <NA>  <NA> 
##  2 Captain:                "Cpt… <NA>  <NA>  <NA>  <NA>  <NA>  <NA>  <NA>  <NA> 
##  3 Chief Steward:          "Peg… <NA>  <NA>  <NA>  <NA>  <NA>  <NA>  <NA>  <NA> 
##  4 Ship Capacity:          "814" <NA>  <NA>  <NA>  <NA>  <NA>  <NA>  <NA>  <NA> 
##  5 Cruise Dates:           "10t… <NA>  <NA>  <NA>  <NA>  <NA>  <NA>  <NA>  <NA> 
##  6 Cruise Route:           "Hal… <NA>  <NA>  <NA>  <NA>  <NA>  <NA>  <NA>  <NA> 
##  7 <NA>                     <NA> <NA>  <NA>  <NA>  <NA>  <NA>  <NA>  <NA>  <NA> 
##  8 <NA>                     <NA> <NA>  <NA>  <NA>  <NA>  <NA>  <NA>  <NA>  <NA> 
##  9 Passenger Information    <NA> <NA>  <NA>  <NA>  <NA>  Pass… <NA>  <NA>  <NA> 
## 10 First                   "Las… DOB   Age   Gend… Memb… Addr… City  Prov… Coun…
## # ℹ 594 more rows
## # ℹ abbreviated name: ¹​`Definitely not pirates cruise ship company ™`
## # ℹ 6 more variables: ...11 <chr>, ...12 <chr>, ...13 <chr>, ...14 <chr>,
## #   ...15 <chr>, ...16 <chr>
…
